{

    "mongoose": {
        "uri": "mongodb://process.env.OPENSHIFT_MONGODB_DB_HOST:process.env.OPENSHIFT_MONGODB_DB_PORT/"
    },
   
        "user": {
            "username": "admin",
            "password": "xFSehsVdLqXm"
        }
    }
